<svg xmlns="http://www.w3.org/2000/svg" width="512" height="512" viewBox="0 0 511.489 511.489">
    <path d="M221.743 278.293v-44.467c0-8.276-6.733-15.01-15.011-15.01H79.972c-8.277 0-15.011 6.733-15.011 15.01v44.467c0 8.277 6.733 15.011 15.011 15.011h126.761c8.277-.001 15.01-6.734 15.01-15.011zm-15-44.467v44.477l-.011.001-32.578-.003v-44.477zm-47.588 44.473l-31.604-.003V233.82l31.604.002zm-79.194-.006l.011-44.477 32.578.002v44.477zM352.814 332.727h-65.462c-4.143 0-7.5 3.357-7.5 7.5s3.357 7.5 7.5 7.5h65.462c4.143 0 7.5-3.357 7.5-7.5s-3.358-7.5-7.5-7.5zM352.814 361.681h-65.462c-4.143 0-7.5 3.357-7.5 7.5s3.357 7.5 7.5 7.5h65.462c4.143 0 7.5-3.357 7.5-7.5s-3.358-7.5-7.5-7.5zM352.814 390.364h-65.462c-4.143 0-7.5 3.357-7.5 7.5s3.357 7.5 7.5 7.5h65.462c4.143 0 7.5-3.357 7.5-7.5s-3.358-7.5-7.5-7.5zM122.416 188.59c.1-.08 16.629-5.454 16.629-23.488 0-4.143-3.357-7.5-7.5-7.5s-7.5 3.357-7.5 7.5c0 4.02-2.404 7.6-6.127 9.121l-1.184.484c-3.833 1.569-5.669 5.948-4.101 9.782 1.567 3.826 5.94 5.671 9.783 4.101zM163.105 188.105c.794.27 2.015 1.045 4.021 1.045 2.955 0 5.756-1.758 6.944-4.661 1.568-3.834-.268-8.213-4.101-9.782-.176-.134-7.311-2.078-7.311-9.605 0-4.143-3.357-7.5-7.5-7.5s-7.5 3.357-7.5 7.5c.002 10.138 6.065 19.167 15.447 23.003z"/>
    <path d="M503.989 431.254h-41.255l6.321-7.139c2.746-3.101 2.458-7.841-.644-10.587-3.101-2.747-7.841-2.458-10.587.644l-10.856 12.261-3.971-6.058c-2.271-3.464-6.918-4.434-10.384-2.161-3.464 2.271-4.432 6.919-2.161 10.384l1.741 2.656h-29.787v-91.655c3.78.52 7.632.811 11.553.811 20.674 0 40.571-7.569 56.025-21.313 3.095-2.753 3.373-7.493.62-10.589-2.753-3.094-7.493-3.373-10.589-.62-12.705 11.3-29.062 17.522-46.057 17.522-38.239 0-69.35-31.11-69.35-69.351 0-38.239 31.11-69.35 69.35-69.35s69.351 31.11 69.351 69.35c0 10.521-2.294 20.621-6.817 30.023-1.797 3.732-.227 8.214 3.506 10.011 3.732 1.794 8.214.227 10.01-3.507 5.509-11.447 8.302-23.737 8.302-36.527 0-46.511-37.84-84.35-84.351-84.35s-84.35 37.839-84.35 84.35c0 3.057.173 6.073.492 9.047H252.76V217.49h4.666c4.143 0 7.5-3.357 7.5-7.5s-3.357-7.5-7.5-7.5h-4.666v-12.32c11.758 4.516 24.458-.488 30.441-10.554 7.043-11.85 3.134-27.221-8.716-34.265l-64.858-38.553V72.735c0-4.143-3.357-7.5-7.5-7.5s-7.5 3.357-7.5 7.5v25.146l-38.501-22.886c-7.878-4.682-17.668-4.682-25.548 0l-51.184 30.426c-3.561 2.117-4.731 6.719-2.615 10.279 2.117 3.562 6.722 4.732 10.279 2.615l51.183-30.426c3.154-1.873 7.069-1.873 10.222 0l118.358 70.355c4.739 2.817 6.303 8.966 3.485 13.706-2.89 4.863-9.053 6.252-13.706 3.485l-109.416-65.04c-2.361-1.404-5.303-1.404-7.664 0L30.104 175.438c-4.769 2.835-10.893 1.246-13.705-3.486-2.817-4.74-1.254-10.889 3.485-13.706l41.353-24.581c3.561-2.117 4.731-6.719 2.615-10.279-2.116-3.562-6.72-4.729-10.279-2.615l-41.353 24.58c-11.85 7.044-15.759 22.415-8.716 34.265 6.219 10.462 19.062 14.953 30.441 10.561v12.313h-4.667c-4.143 0-7.5 3.357-7.5 7.5s3.357 7.5 7.5 7.5h4.667v213.764H8.295c-4.143 0-7.5 3.357-7.5 7.5s3.357 7.5 7.5 7.5h495.693c4.143 0 7.5-3.357 7.5-7.5s-3.357-7.5-7.499-7.5zM333.121 280.106c1.337 4.487 3.03 8.821 5.062 12.963H252.76v-12.963zM113.307 431.254v-98.222h60.091v33.77c0 4.143 3.357 7.5 7.5 7.5s7.5-3.357 7.5-7.5v-41.27c0-4.143-3.357-7.5-7.5-7.5h-75.091c-4.143 0-7.5 3.357-7.5 7.5v105.722H48.946V181.688l94.407-56.119 94.407 56.119v249.566h-49.362v-34.465c0-4.143-3.357-7.5-7.5-7.5s-7.5 3.357-7.5 7.5v34.465zm139.453 0V308.069h94.866c10.126 12.886 23.909 22.755 39.781 28.035v95.15z"/>
    <path d="M397.248 248.559c-4.143 0-7.5 3.357-7.5 7.5s3.357 7.5 7.5 7.5h33.422c4.143 0 7.5-3.357 7.5-7.5s-3.357-7.5-7.5-7.5z"/>
</svg>
